{
    "index": {
        "download_fdroid": "下载 F-Droid", 
        "gpg_signature": "PGP 签名", 
        "introduction": "F-Droid 是一个针对 Android 平台的产品目录。安装客户端之后，可查找并安装各种 FOSS （Free and Open Source Software：自由开源软件）应用程序。通过它，用户可非常方便地跟踪、浏览与安装应用更新。", 
        "screenshot": "F-Droid Android 应用屏幕截图", 
        "title": "F-Droid 是什么？"
    }, 
    "navigation": {
        "about": "关于", 
        "browse": "浏览", 
        "contribute": "参与", 
        "documentation": "文档", 
        "forum": "论坛", 
        "issues": "问题", 
        "news": "新闻", 
        "repomaker": "Repomaker", 
        "tutorials": "教程"
    }, 
    "package": {
        "author": "作者", 
        "build_metadata": "构建元数据", 
        "changelog": "更新日志", 
        "donate": "捐赠", 
        "download": "下载 [file_extension]", 
        "flattr": "Flattr", 
        "gpg_signature": "PGP 签名", 
        "issue_tracker": "问题跟踪系统", 
        "liberapay": "Liberapay", 
        "license": "许可证类型", 
        "minimum_android_version": "该版本需 Android [android_version] 或更新版本。", 
        "new_in_version": "新版本[latest_version]", 
        "packages": "应用包", 
        "permissions": "权限", 
        "signed_by_developer": "由原开发者编译并签名。", 
        "signed_by_fdroid": "由 F-Droid 编译并签名，确保与 <a href=\"[source_code_url]\">该源码 tarball</a> 保持一致。", 
        "source_code": "源代码", 
        "suggest_downloading_via_fdroid": "虽然可选择从下方提供的 APK 链接下载，但这种安装方式不会发送更新通知，而且下载方式没有那么安全。推荐安装 F-Droid 客户端并使用它来安装应用。", 
        "technical_info": "技术信息", 
        "version_info": "<b>版本 [package_version]</b> ([package_version_code]) - 添加于 [package_added_date]", 
        "website": "网站"
    }, 
    "sidebars": {
        "donate": {
            "bank_transfer_name": "名称", 
            "bitcoin_alt": "Bitcoin 捐赠", 
            "flattr_alt": "Flattr 捐赠", 
            "heading": "捐赠", 
            "liberapay_alt": "通过 Liberapay 捐款", 
            "paypal_alt": "通过 PayPal 捐赠", 
            "powered_by_donations": "您的捐赠将是 F-Droid 运行的驱动力！", 
            "via_bank_transfer": "银行转账"
        }, 
        "last_updated": {
            "heading": "最近更新"
        }, 
        "latest_packages": {
            "heading": "最新应用"
        }, 
        "news": {
            "heading": "新闻"
        }, 
        "search": {
            "heading": "查找应用", 
            "noscript": "需启用 JavaScript"
        }
    }
}